[
  {
    "source": "covid_data",
    "mapping_tables": [
      {
        "table": "covid_data_fr",
        "attributes": [
          {
            "global_mapping": "PATIENT_ID",
            "local_mapping": "PATIENT_ID",
            "type": "INTEGER"
          },
          {
            "global_mapping": "USMER",
            "local_mapping": "USMER",
            "type": "INTEGER"
          },
          {
            "global_mapping": "MEDICAL_UNIT",
            "local_mapping": "MEDICAL_UNIT",
            "type": "INTEGER"
          },
          {
            "global_mapping": "SEX",
            "local_mapping": "SEX",
            "type": "INTEGER"
          },
          {
            "global_mapping": "PATIENT_TYPE",
            "local_mapping": "PATIENT_TYPE",
            "type": "INTEGER"
          },
          {
            "global_mapping": "INTUBED",
            "local_mapping": "INTUBED",
            "type": "REAL"
          },
          {
            "global_mapping": "PNEUMONIA",
            "local_mapping": "PNEUMONIA",
            "type": "INTEGER"
          },
          {
            "global_mapping": "AGE",
            "local_mapping": "AGE",
            "type": "INTEGER"
          },
          {
            "global_mapping": "PREGNANT",
            "local_mapping": "PREGNANT",
            "type": "INTEGER"
          },
          {
            "global_mapping": "DIABETES",
            "local_mapping": "DIABETES",
            "type": "INTEGER"
          },
          {
            "global_mapping": "COPD",
            "local_mapping": "COPD",
            "type": "INTEGER"
          },
          {
            "global_mapping": "ASTHMA",
            "local_mapping": "ASTHMA",
            "type": "INTEGER"
          },
          {
            "global_mapping": "INMSUPR",
            "local_mapping": "INMSUPR",
            "type": "INTEGER"
          },
          {
            "global_mapping": "HIPERTENSION",
            "local_mapping": "HIPERTENSION",
            "type": "INTEGER"
          },
          {
            "global_mapping": "OTHER_DISEASE",
            "local_mapping": "OTHER_DISEASE",
            "type": "INTEGER"
          },
          {
            "global_mapping": "CARDIOVASCULAR",
            "local_mapping": "CARDIOVASCULAR",
            "type": "INTEGER"
          },
          {
            "global_mapping": "OBESITY",
            "local_mapping": "OBESITY",
            "type": "INTEGER"
          },
          {
            "global_mapping": "CARDIOVASCULAR",
            "local_mapping": "CARDIOVASCULAR",
            "type": "INTEGER"
          },
          {
            "global_mapping": "RENAL_CHRONIC",
            "local_mapping": "RENAL_CHRONIC",
            "type": "INTEGER"
          },
          {
            "global_mapping": "TOBACCO",
            "local_mapping": "TOBACCO",
            "type": "INTEGER"
          },
          {
            "global_mapping": "CLASIFFICATION_FINAL",
            "local_mapping": "CLASIFFICATION_FINAL",
            "type": "INTEGER"
          },
          {
            "global_mapping": "ICU",
            "local_mapping": "ICU",
            "type": "REAL"
          },
          {
            "global_mapping": "DEATH",
            "local_mapping": "DEATH",
            "type": "INTEGER"
          }
        ]
      },
      {
        "table": "covid_data_es",
        "attributes": [
          {
            "global_mapping": "PATIENT_ID",
            "local_mapping": "PATIENT_ID",
            "type": "INTEGER"
          },
          {
            "global_mapping": "USMER",
            "local_mapping": "USMER",
            "type": "INTEGER"
          },
          {
            "global_mapping": "MEDICAL_UNIT",
            "local_mapping": "MEDICAL_UNIT",
            "type": "INTEGER"
          },
          {
            "global_mapping": "SEX",
            "local_mapping": "SEX",
            "type": "INTEGER"
          },
          {
            "global_mapping": "PATIENT_TYPE",
            "local_mapping": "PATIENT_TYPE",
            "type": "INTEGER"
          },
          {
            "global_mapping": "INTUBED",
            "local_mapping": "INTUBED",
            "type": "REAL"
          },
          {
            "global_mapping": "PNEUMONIA",
            "local_mapping": "PNEUMONIA",
            "type": "INTEGER"
          },
          {
            "global_mapping": "AGE",
            "local_mapping": "AGE",
            "type": "INTEGER"
          },
          {
            "global_mapping": "PREGNANT",
            "local_mapping": "PREGNANT",
            "type": "INTEGER"
          },
          {
            "global_mapping": "DIABETES",
            "local_mapping": "DIABETES",
            "type": "INTEGER"
          },
          {
            "global_mapping": "COPD",
            "local_mapping": "COPD",
            "type": "INTEGER"
          },
          {
            "global_mapping": "ASTHMA",
            "local_mapping": "ASTHMA",
            "type": "INTEGER"
          },
          {
            "global_mapping": "INMSUPR",
            "local_mapping": "INMSUPR",
            "type": "INTEGER"
          },
          {
            "global_mapping": "HIPERTENSION",
            "local_mapping": "HIPERTENSION",
            "type": "INTEGER"
          },
          {
            "global_mapping": "OTHER_DISEASE",
            "local_mapping": "OTHER_DISEASE",
            "type": "INTEGER"
          },
          {
            "global_mapping": "CARDIOVASCULAR",
            "local_mapping": "CARDIOVASCULAR",
            "type": "INTEGER"
          },
          {
            "global_mapping": "OBESITY",
            "local_mapping": "OBESITY",
            "type": "INTEGER"
          },
          {
            "global_mapping": "CARDIOVASCULAR",
            "local_mapping": "CARDIOVASCULAR",
            "type": "INTEGER"
          },
          {
            "global_mapping": "RENAL_CHRONIC",
            "local_mapping": "RENAL_CHRONIC",
            "type": "INTEGER"
          },
          {
            "global_mapping": "TOBACCO",
            "local_mapping": "TOBACCO",
            "type": "INTEGER"
          },
          {
            "global_mapping": "CLASIFFICATION_FINAL",
            "local_mapping": "CLASIFFICATION_FINAL",
            "type": "INTEGER"
          },
          {
            "global_mapping": "ICU",
            "local_mapping": "ICU",
            "type": "REAL"
          },
          {
            "global_mapping": "DEATH",
            "local_mapping": "DEATH",
            "type": "INTEGER"
          }
        ]
      },
      {
        "table": "covid_data_de",
        "attributes": [
          {
            "global_mapping": "PATIENT_ID",
            "local_mapping": "PATIENT_ID",
            "type": "INTEGER"
          },
          {
            "global_mapping": "USMER",
            "local_mapping": "USMER",
            "type": "INTEGER"
          },
          {
            "global_mapping": "MEDICAL_UNIT",
            "local_mapping": "MEDICAL_UNIT",
            "type": "INTEGER"
          },
          {
            "global_mapping": "SEX",
            "local_mapping": "SEX",
            "type": "INTEGER"
          },
          {
            "global_mapping": "PATIENT_TYPE",
            "local_mapping": "PATIENT_TYPE",
            "type": "INTEGER"
          },
          {
            "global_mapping": "INTUBED",
            "local_mapping": "INTUBED",
            "type": "REAL"
          },
          {
            "global_mapping": "PNEUMONIA",
            "local_mapping": "PNEUMONIA",
            "type": "INTEGER"
          },
          {
            "global_mapping": "AGE",
            "local_mapping": "AGE",
            "type": "INTEGER"
          },
          {
            "global_mapping": "PREGNANT",
            "local_mapping": "PREGNANT",
            "type": "INTEGER"
          },
          {
            "global_mapping": "DIABETES",
            "local_mapping": "DIABETES",
            "type": "INTEGER"
          },
          {
            "global_mapping": "COPD",
            "local_mapping": "COPD",
            "type": "INTEGER"
          },
          {
            "global_mapping": "ASTHMA",
            "local_mapping": "ASTHMA",
            "type": "INTEGER"
          },
          {
            "global_mapping": "INMSUPR",
            "local_mapping": "INMSUPR",
            "type": "INTEGER"
          },
          {
            "global_mapping": "HIPERTENSION",
            "local_mapping": "HIPERTENSION",
            "type": "INTEGER"
          },
          {
            "global_mapping": "OTHER_DISEASE",
            "local_mapping": "OTHER_DISEASE",
            "type": "INTEGER"
          },
          {
            "global_mapping": "CARDIOVASCULAR",
            "local_mapping": "CARDIOVASCULAR",
            "type": "INTEGER"
          },
          {
            "global_mapping": "OBESITY",
            "local_mapping": "OBESITY",
            "type": "INTEGER"
          },
          {
            "global_mapping": "CARDIOVASCULAR",
            "local_mapping": "CARDIOVASCULAR",
            "type": "INTEGER"
          },
          {
            "global_mapping": "RENAL_CHRONIC",
            "local_mapping": "RENAL_CHRONIC",
            "type": "INTEGER"
          },
          {
            "global_mapping": "TOBACCO",
            "local_mapping": "TOBACCO",
            "type": "INTEGER"
          },
          {
            "global_mapping": "CLASIFFICATION_FINAL",
            "local_mapping": "CLASIFFICATION_FINAL",
            "type": "INTEGER"
          },
          {
            "global_mapping": "ICU",
            "local_mapping": "ICU",
            "type": "REAL"
          },
          {
            "global_mapping": "DEATH",
            "local_mapping": "DEATH",
            "type": "INTEGER"
          }
        ]
      }
    ]
  }
]